{
  "posts": [
    {
      "name": "iMBrace all in one",
      "nodes": [
        {
          "parameters": {
            "icsTitle": "Start"
          },
          "name": "Start",
          "type": "n8n-nodes-base.start",
          "typeVersion": 1,
          "position": [
            240,
            20
          ]
        },
        {
          "parameters": {
            "options": {},
            "icsTitle": "Whatsapp Trigger",
            "retrigger": false
          },
          "name": "Whatsapp Trigger",
          "type": "n8n-nodes-base.WhatsappTrigger",
          "typeVersion": 1,
          "position": [
            260,
            500
          ]
        },
        {
          "parameters": {
            "icsTitle": "WhatsappMultipleChoices",
            "langActive": false,
            "question": "",
            "option1": "",
            "option2": "",
            "option3": "",
            "multilang": {
              "lang": [
                {}
              ]
            }
          },
          "name": "WhatsappMultipleChoices",
          "type": "n8n-nodes-base.WhatsappMultipleChoices",
          "typeVersion": 1,
          "position": [
            440,
            500
          ]
        },
        {
          "parameters": {
            "icsTitle": "WhatsappListMessages",
            "langActive": false,
            "question": "",
            "option1": "",
            "option2": "",
            "option3": "",
            "option4": "",
            "option5": "",
            "option6": "",
            "option7": "",
            "option8": "",
            "option9": "",
            "option10": ""
          },
          "name": "WhatsappListMessages",
          "type": "n8n-nodes-base.WhatsappListMessages",
          "typeVersion": 1,
          "position": [
            660,
            440
          ]
        },
        {
          "parameters": {
            "options": {},
            "icsTitle": "Web Widget Trigger",
            "retrigger": false
          },
          "name": "Web Widget Trigger",
          "type": "n8n-nodes-base.WebWidgetTrigger",
          "typeVersion": 1,
          "position": [
            240,
            220
          ]
        },
        {
          "parameters": {
            "icsTitle": "Say",
            "langActive": false,
            "message": ""
          },
          "name": "Say",
          "type": "n8n-nodes-base.Say",
          "typeVersion": 1,
          "position": [
            560,
            220
          ]
        },
        {
          "parameters": {
            "icsTitle": "Input",
            "langActive": false,
            "question": "",
            "responseMesg": "",
            "attribute": "phone_number",
            "apiPath": "contacts"
          },
          "name": "Input",
          "type": "n8n-nodes-base.input",
          "typeVersion": 1,
          "position": [
            720,
            220
          ]
        },
        {
          "parameters": {
            "options": {},
            "icsTitle": "Channel Trigger",
            "repeatable": false,
            "supportChannelType": "web",
            "channelId": "",
            "topic": "",
            "groupId": "",
            "useSchemaRegistry": false
          },
          "name": "Channel Trigger",
          "type": "n8n-nodes-base.channelTrigger",
          "typeVersion": 1,
          "position": [
            800,
            20
          ]
        },
        {
          "parameters": {
            "icsTitle": "Ending",
            "langActive": false,
            "message": "",
            "assign": false
          },
          "name": "Ending",
          "type": "n8n-nodes-base.Ending",
          "typeVersion": 1,
          "position": [
            880,
            220
          ]
        },
        {
          "parameters": {
            "options": {},
            "icsTitle": "Imbrace Trigger",
            "supportChannelType": "web",
            "triggerKeywords": {},
            "topic": "",
            "groupId": "",
            "useSchemaRegistry": false
          },
          "name": "Imbrace Trigger",
          "type": "n8n-nodes-base.imbraceTrigger",
          "typeVersion": 1,
          "position": [
            1020,
            20
          ]
        },
        {
          "parameters": {
            "icsTitle": "MultipleChoices",
            "langActive": false,
            "question": "",
            "option1": "",
            "option2": "",
            "option3": "",
            "option4": ""
          },
          "name": "MultipleChoices",
          "type": "n8n-nodes-base.MultipleChoices",
          "typeVersion": 1,
          "position": [
            1040,
            220
          ]
        },
        {
          "parameters": {
            "icsTitle": "OpenQuestion",
            "langActive": false,
            "question": ""
          },
          "name": "OpenQuestion",
          "type": "n8n-nodes-base.OpenQuestion",
          "typeVersion": 1,
          "position": [
            920,
            500
          ]
        },
        {
          "parameters": {
            "icsTitle": "Phrase Filter",
            "value1": "",
            "rules": {},
            "fallbackOutput": 10
          },
          "name": "Phrase Filter",
          "type": "n8n-nodes-base.Phrase Filter",
          "typeVersion": 1,
          "position": [
            1060,
            420
          ]
        },
        {
          "parameters": {
            "icsTitle": "Preference",
            "langConfig": {}
          },
          "name": "Preference",
          "type": "n8n-nodes-base.Preference",
          "typeVersion": 1,
          "position": [
            400,
            220
          ]
        },
        {
          "parameters": {
            "icsTitle": "Randomise",
            "message": ""
          },
          "name": "Randomise",
          "type": "n8n-nodes-base.Randomise",
          "typeVersion": 1,
          "position": [
            1200,
            20
          ]
        },
        {
          "parameters": {
            "icsTitle": "Switch",
            "mode": "rules",
            "dataType": "number",
            "value1": 0,
            "rules": {},
            "fallbackOutput": -1
          },
          "name": "Switch",
          "type": "n8n-nodes-base.switch",
          "typeVersion": 1,
          "position": [
            560,
            20
          ]
        },
        {
          "parameters": {
            "icsTitle": "IF",
            "conditions": {},
            "combineOperation": "all"
          },
          "name": "IF",
          "type": "n8n-nodes-base.if",
          "typeVersion": 1,
          "position": [
            400,
            20
          ]
        },
        {
          "parameters": {
            "icsTitle": "WhatsappListMessages1",
            "langActive": false,
            "question": "",
            "option1": "",
            "option2": "",
            "option3": "",
            "option4": "",
            "option5": "",
            "option6": "",
            "option7": "",
            "option8": "",
            "option9": "",
            "option10": ""
          },
          "name": "WhatsappListMessages1",
          "type": "n8n-nodes-base.WhatsappListMessages",
          "typeVersion": 1,
          "position": [
            -20,
            240
          ]
        },
        {
          "parameters": {
            "icsTitle": "WhatsappMultipleChoices1",
            "langActive": false,
            "question": "",
            "option1": "",
            "option2": "",
            "option3": ""
          },
          "name": "WhatsappMultipleChoices1",
          "type": "n8n-nodes-base.WhatsappMultipleChoices",
          "typeVersion": 1,
          "position": [
            40,
            20
          ]
        }
      ],
      "connections": {
        "Whatsapp Trigger": {
          "main": [
            [
              {
                "node": "WhatsappMultipleChoices",
                "type": "main",
                "index": 0
              }
            ]
          ]
        },
        "WhatsappMultipleChoices": {
          "main": [
            [],
            [
              {
                "node": "WhatsappListMessages",
                "type": "main",
                "index": 0
              }
            ]
          ]
        },
        "Web Widget Trigger": {
          "main": [
            [
              {
                "node": "Preference",
                "type": "main",
                "index": 0
              }
            ]
          ]
        },
        "Say": {
          "main": [
            [
              {
                "node": "Input",
                "type": "main",
                "index": 0
              }
            ]
          ]
        },
        "Imbrace Trigger": {
          "main": [
            [
              {
                "node": "Randomise",
                "type": "main",
                "index": 0
              }
            ]
          ]
        },
        "OpenQuestion": {
          "main": [
            [
              {
                "node": "Phrase Filter",
                "type": "main",
                "index": 0
              }
            ]
          ]
        },
        "Preference": {
          "main": [
            [
              {
                "node": "Say",
                "type": "main",
                "index": 0
              }
            ]
          ]
        },
        "Input": {
          "main": [
            [
              {
                "node": "Ending",
                "type": "main",
                "index": 0
              }
            ]
          ]
        },
        "Ending": {
          "main": [
            [
              {
                "node": "MultipleChoices",
                "type": "main",
                "index": 0
              }
            ]
          ]
        },
        "Start": {
          "main": [
            [
              {
                "node": "IF",
                "type": "main",
                "index": 0
              }
            ]
          ]
        },
        "IF": {
          "main": [
            [
              {
                "node": "Switch",
                "type": "main",
                "index": 0
              }
            ]
          ]
        },
        "WhatsappListMessages1": {
          "main": [
            [
              {
                "node": "WhatsappMultipleChoices1",
                "type": "main",
                "index": 0
              }
            ]
          ]
        }
      },
      "active": false,
      "settings": {},
      "id": 1
    }
  ],
  "choices": [
    {
      "element": {
        "label": "Changing to new parents"
      },
      "responses": {
        "1": "Not a parent",
        "2": "Response 2",
        "3": "third option",
        "4": "blalbla"
      },
      "id": 10
    },
    {
      "element": {
        "label": "Changing to new parents"
      },
      "responses": {
        "1": "This is node 1",
        "2": "and it's kids"
      },
      "id": 1
    },
    {
      "element": {
        "label": "lallaa"
      },
      "responses": {
        "1": "Response 1",
        "2": "Response 2",
        "3": "test post"
      },
      "id": 11
    },
    {
      "element": {
        "label": "xsxs"
      },
      "responses": {
        "1": "Response 1",
        "2": "Response 2",
        "3": "test post"
      },
      "id": 12
    },
    {
      "element": {
        "label": "dw"
      },
      "responses": {
        "1": "Response 1",
        "2": "Response 2",
        "3": "klakaak"
      },
      "id": "dndnode_1645349442343"
    },
    {
      "element": {
        "label": "new node"
      },
      "responses": {
        "1": "Response 1",
        "2": "Response 2"
      },
      "id": "dndnode_0"
    }
  ]
}